{"name":"getUsers","id":"SerenityInitialTests:getUsers","testCaseName":"SerenityInitialTests","testSteps":[{"number":1,"description":"Julian the trainer executes a GET on the resource /user?page\u003d1","duration":7498,"startTime":"2020-02-10T15:59:15.087+01:00[Europe/Paris]","result":"SUCCESS","precondition":false,"children":[{"number":2,"description":"GET http://localhost:5000/api/user?page\u003d1\r\r","duration":2,"startTime":"2020-02-10T15:59:22.577+01:00[Europe/Paris]","result":"SUCCESS","restQuery":{"method":"GET","path":"http://localhost:5000/api/user?page\u003d1\r\r","content":"\r","contentType":"application/json","requestHeaders":"header1\u003dvalue1\r\n\t\t\t\tAccept\u003d*/*\r\n\t\t\t\tContent-Type\u003dapplication/json; charset\u003dUTF-8\r\r","requestCookies":"\r\r","responseHeaders":"X-Powered-By: Express\nAccess-Control-Allow-Origin: *\nContent-Type: application/json; charset\u003dutf-8\nContent-Length: 312\nETag: W/\"138-JxfoRpyrgR+3MwPzWk39icdKPEA\"\nDate: Mon, 10 Feb 2020 14:59:22 GMT\nConnection: keep-alive\r","responseCookies":"\r","responseBody":"{\n    \"page\": 1,\n    \"per_page\": 3,\n    \"total\": 12,\n    \"total_pages\": 4,\n    \"data\": [\n        {\n            \"id\": 1,\n            \"name\": \"cerulean\",\n            \"year\": 2000,\n            \"color\": \"#98B2D1\",\n            \"pantone_value\": \"15-4020\"\n        },\n        {\n            \"id\": 2,\n            \"name\": \"fuchsia rose\",\n            \"year\": 2001,\n            \"color\": \"#C74375\",\n            \"pantone_value\": \"17-2031\"\n        },\n        {\n            \"id\": 3,\n            \"name\": \"true red\",\n            \"year\": 2002,\n            \"color\": \"#BF1932\",\n            \"pantone_value\": \"19-1664\"\n        }\n    ]\n}","statusCode":200},"precondition":false}]},{"number":3,"description":"Then el codigo de respuesta should be (200)","duration":45,"startTime":"2020-02-10T15:59:22.764+01:00[Europe/Paris]","result":"SUCCESS","precondition":false}],"userStory":{"id":"SerenityInitialTests","storyName":"Serenity initial tests","storyClassName":"SerenityInitialTests","path":"","type":"story"},"featureTag":{"name":"Serenity initial tests","type":"story"},"title":"Get users","tags":[{"name":"Serenity initial tests","type":"story"}],"startTime":"2020-02-10T15:59:14.646+01:00[Europe/Paris]","duration":8361,"testFailureCause":{"errorType":"java.lang.NullPointerException","stackTrace":[{"declaringClass":"SerenityInitialTests","methodName":"getUsers","fileName":"SerenityInitialTests.java","lineNumber":36},{"declaringClass":"org.eclipse.jdt.internal.junit4.runner.JUnit4TestReference","methodName":"run","fileName":"JUnit4TestReference.java","lineNumber":89},{"declaringClass":"org.eclipse.jdt.internal.junit.runner.TestExecution","methodName":"run","fileName":"TestExecution.java","lineNumber":41},{"declaringClass":"org.eclipse.jdt.internal.junit.runner.RemoteTestRunner","methodName":"runTests","fileName":"RemoteTestRunner.java","lineNumber":542},{"declaringClass":"org.eclipse.jdt.internal.junit.runner.RemoteTestRunner","methodName":"runTests","fileName":"RemoteTestRunner.java","lineNumber":770},{"declaringClass":"org.eclipse.jdt.internal.junit.runner.RemoteTestRunner","methodName":"run","fileName":"RemoteTestRunner.java","lineNumber":464},{"declaringClass":"org.eclipse.jdt.internal.junit.runner.RemoteTestRunner","methodName":"main","fileName":"RemoteTestRunner.java","lineNumber":210}]},"testFailureClassname":"java.lang.NullPointerException","testFailureSummary":"ERROR;java.lang.NullPointerException;null;SerenityInitialTests.java","projectKey":"","annotatedResult":"ERROR","manual":false,"testSource":"JUnit","actors":[{"name":"Julian the trainer","can":["call an API at http://localhost:5000/api"]}],"result":"ERROR"}